%YAML 1.1
%TAG !u! tag:unity3d.com,2011:
--- !u!687078895 &4343727234628468602
SpriteAtlas:
  m_ObjectHideFlags: 0
  m_CorrespondingSourceObject: {fileID: 0}
  m_PrefabInstance: {fileID: 0}
  m_PrefabAsset: {fileID: 0}
  m_Name: Shapes Sprite Atlas
  m_EditorData:
    serializedVersion: 2
    textureSettings:
      serializedVersion: 2
      anisoLevel: 1
      compressionQuality: 50
      maxTextureSize: 2048
      textureCompression: 0
      filterMode: 1
      generateMipMaps: 1
      readable: 0
      crunchedCompression: 0
      sRGB: 1
    platformSettings: []
    packingSettings:
      serializedVersion: 2
      padding: 8
      blockOffset: 1
      allowAlphaSplitting: 0
      enableRotation: 1
      enableTightPacking: 0
    variantMultiplier: 1
    packables:
    - {fileID: 102900000, guid: fc32dbbf65b904749822c92b84923962, type: 3}
    totalSpriteSurfaceArea: 269329
    bindAsDefault: 1
  m_MasterAtlas: {fileID: 0}
  m_PackedSprites:
  - {fileID: 21300000, guid: 9b57b11087be60f49a083725b76d6f65, type: 3}
  - {fileID: 21300000, guid: d5383ac0ea37564409c7c7559cc32330, type: 3}
  - {fileID: 21300000, guid: 0bec72e1f5dcae946873b7f4e1c01658, type: 3}
  - {fileID: 21300000, guid: e9f00bf1bbdad6949835fcacb2c2a8b9, type: 3}
  - {fileID: 21300000, guid: 5e90cb7279d582b4baaf132ed2845e9b, type: 3}
  - {fileID: 21300000, guid: ff88b233bf0997f4dbc4f06fcc718925, type: 3}
  - {fileID: 21300000, guid: e7e00aaa3752a754ba831a9f2baf5d06, type: 3}
  - {fileID: 21300000, guid: aba76ecbde3ebb247b3312656acd94b0, type: 3}
  - {fileID: 21300000, guid: 2a39a8fc75cf6bb43bfd32cc6f86b0a2, type: 3}
  - {fileID: 21300000, guid: a9cfa28d979d20143bdfc464a68cce4e, type: 3}
  - {fileID: 21300000, guid: faa9f5fd55400f74193f6581c8e18c9b, type: 3}
  - {fileID: 21300000, guid: 5d4fad1f891d3344b9fa9b60e81f2448, type: 3}
  - {fileID: 21300000, guid: a36094cf4d02f04449bfcb433d266a10, type: 3}
  m_PackedSpriteNamesToIndex:
  - shape10
  - shape06
  - shape02
  - shape03
  - shape09
  - shape07
  - pause
  - shape05
  - timer
  - shape01
  - shape04
  - Star
  - shape08
  m_Tag: Shapes Sprite Atlas
  m_IsVariant: 0
